gwaslake: exploring the MRC GWAS API and data/software ecosystem with Bioconductor • gwaslake
…
The pkgdown site for ieugwasr includes a reference listing, visible here.

Let’s try the gwasinfo command.

gwi = gwasinfo()
gwi

## # A tibble: 34,513 x 28
##    id    trait coverage imputation_panel group_name  year    mr author
##    <chr> <chr> <chr>    <chr>            <chr>      <int> <int> <chr> 
##  1 ieu-… Alco… whole g… HRC              public      2019     1 Liu, M
##  2 ieu-… Urin… whole g… <NA>             public      2020     1 Zanet…
##  3 eqtl… ENSG… <NA>     <NA>             public      2018     1 Vosa U
##  4 eqtl… ENSG… <NA>     <NA>             public      2018     1 Vosa U
##  5 eqtl… ENSG… <NA>     <NA>             public      2018     1 Vosa U
##  6 eqtl… ENSG… <NA>     <NA>             public      2018     1 Vosa U
##  7 eqtl… ENSG… <NA>     <NA>             public      2018     1 Vosa U
##  8 prot… PDGF… <NA>     <NA>             public      2019     1 Suhre…
##  9 ubm-… NET1… <NA>     <NA>             public      2018     1 Ellio…
## 10 prot… PDZ … <NA>     <NA>             public      2018     1 Sun BB
## # … with 34,503 more rows, and 20 more variables: consortium <chr>, sex <chr>,
## #   qc_prior_to_upload <chr>, pmid <int>, population <chr>, sample_size <int>,
## #   nsnp <int>, build <chr>, study_design <chr>, covariates <chr>,
## #   category <chr>, subcategory <chr>, doi <chr>, note <chr>, priority <int>,
## #   unit <chr>, ontology <chr>, sd <dbl>, ncase <int>, ncontrol <int>
Diseases available

 table(gwi$category)

## 
##              Binary Categorical Ordered          Continuous             Disease 
##                4128                 412                4649                 140 
##       Immune system         Metabolites                  NA         Risk factor 
##                3515                 637               20827                 205

distab = gwi %>% filter(category=="Disease")
distab %>% 
   group_by(trait) %>% summarise(n=n()) %>% arrange(desc(n))

## # A tibble: 82 x 2
##    trait                          n
##    <chr>                      <int>
##  1 Inflammatory bowel disease     7
##  2 Ulcerative colitis             7
##  3 Crohn's disease                6
##  4 Type 2 diabetes                6
##  5 Celiac disease                 4
##  6 Coronary heart disease         4
##  7 Multiple sclerosis             4
##  8 Rheumatoid arthritis           4
##  9 Alzheimer's disease            3
## 10 Bipolar disorder               3
## # … with 72 more rows
…
